<svg width="144" height="25" viewBox="0 0 144 25" fill="none" xmlns="http://www.w3.org/2000/svg">
    <path d="M19.1594 19.0421C19.1594 17.9872 20.499 16.6813 23.2967 16.6813C23.464 16.6813 23.6313 16.6813 23.7961 16.6976C23.5813 18.7262 21.9721 20.1145 20.3991 20.1145C19.6451 20.1145 19.1594 19.7624 19.1594 19.0421ZM13.7326 7.95491H13.7663L12.8924 15.961C11.9487 15.679 10.9857 15.4662 10.011 15.3243L13.7326 7.95491ZM7.67027 15.157C5.59415 15.157 3.41691 15.6764 2.29459 16.9148C1.66763 15.7292 1.3507 14.4043 1.37326 13.0634C1.37326 9.49545 3.70155 6.17966 8.17338 4.07483L7.6041 2.86886C2.362 5.24335 0 9.16088 0 13.0634C0 14.9061 0.435697 16.6838 1.59048 18.3717C1.55706 18.5601 1.54035 18.751 1.54054 18.9422C1.54054 20.3654 2.42817 21.3866 4.27083 21.3866C6.19714 21.3866 7.83755 20.0633 8.8263 17.4516H7.38563C6.66529 19.1931 5.49303 20.0995 4.27083 20.0995C3.31579 20.0995 2.89757 19.6638 2.89757 18.9447C2.89757 17.705 4.40441 16.4479 7.68774 16.4479C9.4102 16.4536 11.1215 16.7248 12.7613 17.2519L12.5279 19.4453H13.8674L15.1233 7.63781C15.8942 7.47446 16.6798 7.3908 17.4678 7.38812C20.4153 7.38812 21.2193 8.42681 21.2193 9.54913C21.2193 11.0397 19.9971 12.0772 17.0658 12.413L17.5015 8.37687L16.162 8.42681L14.9897 19.4466H16.3293L16.9148 13.8699C17.9131 13.6 18.9407 13.4528 19.9747 13.4317C21.9509 13.4317 23.2917 14.2357 23.6937 15.4292C23.5601 15.4157 23.4259 15.4103 23.2917 15.4129C19.489 15.4129 17.7987 17.3555 17.7987 19.0646C17.7987 20.5714 18.9222 21.4091 20.3779 21.4091C22.5002 21.4091 24.7998 19.7 25.1219 16.9035C26.0913 17.1296 27.0185 17.509 27.8684 18.0271C25.5738 21.4266 20.9347 23.6537 15.3742 23.6537C12.644 23.6537 9.22829 23.0682 6.96741 21.5102L6.2633 22.6338C8.49172 24.2417 12.0584 24.9958 15.3767 24.9958C24.404 24.9958 30.7685 19.6688 30.7685 13.0871C30.7685 6.17092 23.851 1.17975 15.3942 1.17975C14.8749 1.17975 14.5066 1.19598 14.0035 1.22969L14.1371 2.55301C14.539 2.53678 14.9747 2.5193 15.3767 2.5193C22.9297 2.5193 29.3952 7.07477 29.3952 13.0871C29.3983 14.4101 29.0994 15.7162 28.5213 16.906C27.6674 16.353 26.4277 15.8511 25.1044 15.6002C24.8198 13.9922 23.4977 12.619 20.9347 12.3543C21.437 12.0773 21.8561 11.6708 22.1483 11.177C22.4405 10.6833 22.5952 10.1204 22.5963 9.54664C22.5963 7.48675 21.1394 6.09601 17.4716 6.09601C16.7366 6.09782 16.0031 6.15962 15.2781 6.28078L15.4242 4.86882L14.0684 4.50054L12.8961 6.81635C11.0035 7.36565 9.16088 8.17338 8.07226 8.79259L8.67524 9.94863C9.77521 9.38396 10.9108 8.89145 12.0747 8.47425L8.69272 15.1907C8.34066 15.1732 8.00484 15.157 7.67027 15.157ZM12.9136 3.18221C12.9136 1.72531 11.2557 0.418219 9.41805 0C9.23367 0.751566 9.13154 1.52094 9.11343 2.29459C9.11343 4.33824 10.1683 4.93998 11.1571 4.93998C12.2095 4.93998 12.9124 4.23712 12.9124 3.18221H12.9136Z" fill="#63C634"/>
    <path d="M43.1837 9.49132C41.9551 9.49132 41.253 10.1057 41.1128 11.0186H39.3565C39.638 8.98291 41.0069 7.91161 43.1837 7.91161C45.5543 7.91161 46.8354 9.10497 46.8354 11.5431V16.8633H45.0802V14.759C44.6414 16.0402 43.7113 17.0409 41.9026 17.0409C40.2523 17.0409 39.2163 16.1632 39.2163 14.5825C39.2163 12.5811 41.0603 11.5109 45.0802 11.5109V11.3696C45.0802 10.1057 44.3781 9.49132 43.1837 9.49132ZM42.3061 15.5307C44.1148 15.5307 45.0802 14.2849 45.0802 12.7748C42.1831 12.7748 41.0603 13.4416 41.0603 14.4897C41.0603 15.1625 41.5344 15.5307 42.3061 15.5307ZM48.3455 13.9863H50.1714C50.3822 14.8942 50.9784 15.4611 52.314 15.4611C53.8937 15.4611 54.2972 14.8993 54.2972 14.2668C54.2972 13.6696 53.8413 13.2136 52.6297 13.2136H51.1549V11.7217H52.3654C53.6113 11.7217 54.0158 11.3 54.0158 10.6675C54.0158 10.0179 53.471 9.49132 52.2948 9.49132C50.9784 9.49132 50.5043 10.1591 50.3459 10.8784H48.5201C48.6966 9.07067 50.1018 7.91161 52.3281 7.91161C54.7865 7.91161 55.8588 9.05252 55.8588 10.3871C55.8588 11.2819 55.315 12.0374 54.3144 12.3037C55.4371 12.5499 56.1402 13.3397 56.1402 14.3212C56.1402 15.7436 55.0165 17.0449 52.313 17.0449C49.7507 17.0409 48.5211 15.794 48.3455 13.9863ZM58.3181 15.0566C57.7381 14.1619 57.5454 12.9675 57.5454 11.4574C57.5454 7.20952 59.0908 5.38367 62.7768 4.94486C63.9712 4.80364 64.6027 4.66342 64.7257 4.22461H66.3761C66.0956 5.89208 64.8629 6.26129 63.0583 6.48927C60.0733 6.87562 59.3006 7.98122 59.231 10.5979C59.8101 9.22804 61.1618 8.27779 62.8121 8.27779C65.3058 8.27779 66.833 10.2449 66.833 12.6497C66.833 15.0899 64.9719 17.0388 62.1806 17.0388C60.3891 17.0409 59.0031 16.1451 58.3181 15.0566ZM64.989 12.6518C64.989 11.0377 63.831 9.86053 62.1806 9.86053C60.5475 9.86053 59.3894 11.0367 59.3894 12.6518C59.3894 14.3021 60.5485 15.4611 62.1816 15.4611C63.8279 15.4611 64.989 14.3051 64.989 12.6518ZM68.1656 20.3768V18.7961C70.0086 18.7961 70.3596 18.4632 70.9215 16.9006L67.3767 8.08714H69.256L71.8717 14.636L74.4521 8.08714H76.1549L72.4336 17.3213C71.4854 19.6919 70.8005 20.3768 68.1656 20.3768ZM77.1909 8.08714H78.9472V12.0374L82.7925 8.08714H84.8998L80.8255 12.2654L85.2317 16.8653H82.8621L78.9472 12.7395V16.8653H77.1909V8.08714ZM89.5865 9.49132C88.3568 9.49132 87.6547 10.1057 87.5145 11.0186H85.7593C86.0397 8.98291 87.4096 7.91161 89.5865 7.91161C91.9561 7.91161 93.2382 9.10497 93.2382 11.5431V16.8633H91.482V14.759C91.0432 16.0402 90.1131 17.0409 88.3044 17.0409C86.6541 17.0409 85.6181 16.1632 85.6181 14.5825C85.6181 12.5811 87.4621 11.5109 91.482 11.5109V11.3696C91.482 10.1057 90.7799 9.49132 89.5865 9.49132ZM88.7079 15.5307C90.5166 15.5307 91.482 14.2849 91.482 12.7748C88.5858 12.7748 87.4621 13.4416 87.4621 14.4897C87.4621 15.1625 87.9372 15.5307 88.7079 15.5307ZM100.032 8.08714H104C105.948 8.08714 107.02 8.9123 107.02 10.3689C107.02 11.2768 106.458 12.0546 105.334 12.3532C106.616 12.564 107.406 13.2308 107.406 14.406C107.406 15.6003 106.633 16.8643 104.229 16.8643H100.032V8.08714ZM105.211 10.6675C105.211 10.0532 104.825 9.57909 103.912 9.57909H101.757V11.7388H103.916C104.825 11.7388 105.211 11.2647 105.211 10.6675ZM101.757 13.143V15.3734H104.127C105.181 15.3734 105.566 14.869 105.566 14.2315C105.566 13.6696 105.181 13.143 104.039 13.143H101.757ZM109.13 8.08714H110.886V12.0374L114.731 8.08714H116.838L112.765 12.2654L117.172 16.8653H114.801L110.886 12.7395V16.8653H109.13V8.08714ZM117.944 20.3768V18.7961C119.788 18.7961 120.139 18.4632 120.701 16.9006L117.154 8.08714H119.032L121.649 14.636L124.229 8.08714H125.932L122.211 17.3213C121.258 19.6919 120.573 20.3768 117.94 20.3768H117.944ZM133.378 13.6181H135.133C134.711 15.8485 133.184 17.0419 130.955 17.0419C128.231 17.0419 126.39 15.0243 126.39 12.4772C126.39 9.9493 128.233 7.91262 130.919 7.91262C133.239 7.91262 134.729 9.19374 135.062 11.2486H133.307C132.973 10.1248 132.219 9.49233 130.919 9.49233C129.305 9.49233 128.233 10.6867 128.233 12.4772C128.233 14.2859 129.343 15.4621 130.919 15.4621C132.214 15.4611 133.056 14.8468 133.373 13.6171L133.378 13.6181ZM140.347 9.49233C139.118 9.49233 138.416 10.1067 138.275 11.0196H136.52C136.8 8.98392 138.17 7.91262 140.347 7.91262C142.718 7.91262 143.999 9.10598 143.999 11.5441V16.8643H142.244V14.759C141.805 16.0402 140.874 17.0409 139.066 17.0409C137.416 17.0409 136.38 16.1632 136.38 14.5825C136.38 12.5811 138.223 11.5109 142.244 11.5109V11.3696C142.239 10.1057 141.536 9.49132 140.342 9.49132L140.347 9.49233ZM139.469 15.5318C141.278 15.5318 142.244 14.2859 142.244 12.7758C139.346 12.7758 138.223 13.4426 138.223 14.4907C138.218 15.1625 138.692 15.5307 139.464 15.5307L139.469 15.5318Z" fill="#124F2E"/>
</svg>
