<svg width="113" height="22" viewBox="0 0 113 22" fill="none" xmlns="http://www.w3.org/2000/svg">
    <path d="M16.4983 16.3972C16.4983 15.4888 17.6518 14.3644 20.0609 14.3644C20.2049 14.3644 20.349 14.3644 20.4909 14.3783C20.306 16.1252 18.9203 17.3207 17.5658 17.3207C16.9165 17.3207 16.4983 17.0175 16.4983 16.3972ZM11.8252 6.85H11.8542L11.1017 13.7441C10.2891 13.5012 9.45983 13.3181 8.62055 13.1958L11.8252 6.85ZM6.6049 13.0518C4.81715 13.0518 2.94232 13.499 1.97588 14.5654C1.43601 13.5445 1.16309 12.4036 1.18252 11.249C1.18252 8.17657 3.18742 5.32133 7.03813 3.50885L6.54792 2.47039C2.03393 4.51507 0 7.88847 0 11.249C0 12.8357 0.375181 14.3665 1.36957 15.8199C1.34079 15.9822 1.3264 16.1465 1.32657 16.3112C1.32657 17.5367 2.09091 18.4161 3.67763 18.4161C5.33638 18.4161 6.74895 17.2766 7.60036 15.0277H6.3598C5.73951 16.5273 4.73007 17.3078 3.67763 17.3078C2.85524 17.3078 2.49511 16.9326 2.49511 16.3134C2.49511 15.2459 3.79266 14.1633 6.61995 14.1633C8.10316 14.1683 9.57674 14.4018 10.9888 14.8556L10.7878 16.7445H11.9413L13.0227 6.57695C13.6866 6.43629 14.3631 6.36425 15.0416 6.36195C17.5797 6.36195 18.272 7.25636 18.272 8.2228C18.272 9.50637 17.2196 10.3997 14.6955 10.6889L15.0707 7.21336L13.9172 7.25636L12.9077 16.7455H14.0612L14.5654 11.9434C15.4251 11.711 16.3099 11.5843 17.2003 11.5661C18.902 11.5661 20.0566 12.2584 20.4027 13.2861C20.2877 13.2745 20.1721 13.2699 20.0566 13.2722C16.7821 13.2722 15.3265 14.9449 15.3265 16.4166C15.3265 17.7141 16.294 18.4355 17.5475 18.4355C19.375 18.4355 21.3552 16.9638 21.6325 14.5557C22.4673 14.7504 23.2657 15.0771 23.9976 15.5232C22.0217 18.4505 18.0269 20.3683 13.2388 20.3683C10.8878 20.3683 7.94652 19.8642 5.99967 18.5225L5.39336 19.49C7.31226 20.8747 10.3836 21.524 13.241 21.524C21.0144 21.524 26.4948 16.9369 26.4948 11.2694C26.4948 5.31381 20.5382 1.01589 13.256 1.01589C12.8088 1.01589 12.4917 1.02987 12.0585 1.05889L12.1735 2.19841C12.5196 2.18443 12.8948 2.16938 13.241 2.16938C19.7448 2.16938 25.3123 6.09212 25.3123 11.2694C25.315 12.4086 25.0577 13.5333 24.5598 14.5579C23.8245 14.0816 22.757 13.6495 21.6175 13.4334C21.3724 12.0488 20.234 10.8663 18.0269 10.6384C18.4595 10.3998 18.8204 10.0498 19.072 9.6246C19.3236 9.19944 19.4568 8.71468 19.4578 8.22065C19.4578 6.44687 18.2032 5.2493 15.0449 5.2493C14.412 5.25086 13.7803 5.30408 13.156 5.40841L13.2818 4.19256L12.1144 3.87543L11.1049 5.86959C9.47519 6.3426 7.88847 7.03813 6.95105 7.57134L7.47029 8.5668C8.41747 8.08056 9.3953 7.65647 10.3976 7.29721L7.48534 13.0808C7.18218 13.0657 6.893 13.0518 6.6049 13.0518ZM11.12 2.74022C11.12 1.48567 9.69235 0.36013 8.10992 0C7.95115 0.647177 7.86321 1.30969 7.84762 1.97588C7.84762 3.73568 8.75601 4.25384 9.60742 4.25384C10.5137 4.25384 11.1189 3.64861 11.1189 2.74022H11.12Z" fill="#63C634"/>
    <path d="M35.5252 9.02106C34.5871 9.02106 34.0511 9.4901 33.944 10.1871H32.6031C32.818 8.6329 33.8631 7.81498 35.5252 7.81498C37.3351 7.81498 38.3132 8.72609 38.3132 10.5876V14.6495H36.9731V13.0429C36.6381 14.021 35.928 14.785 34.5471 14.785C33.2871 14.785 32.4961 14.115 32.4961 12.9081C32.4961 11.3801 33.904 10.5629 36.9731 10.5629V10.4551C36.9731 9.4901 36.4371 9.02106 35.5252 9.02106ZM34.8551 13.6321C36.236 13.6321 36.9731 12.6809 36.9731 11.528C34.7612 11.528 33.904 12.0371 33.904 12.8373C33.904 13.351 34.2659 13.6321 34.8551 13.6321ZM39.4661 12.4529H40.8602C41.0211 13.1461 41.4763 13.5789 42.496 13.5789C43.7021 13.5789 44.0102 13.15 44.0102 12.6671C44.0102 12.2111 43.662 11.863 42.7371 11.863H41.6111V10.7239H42.5353C43.4864 10.7239 43.7953 10.402 43.7953 9.91908C43.7953 9.42309 43.3794 9.02106 42.4814 9.02106C41.4763 9.02106 41.1143 9.53092 40.9934 10.08H39.5994C39.7342 8.6999 40.807 7.81498 42.5068 7.81498C44.3837 7.81498 45.2024 8.68604 45.2024 9.70498C45.2024 10.3881 44.7873 10.965 44.0232 11.1683C44.8804 11.3562 45.4173 11.9593 45.4173 12.7086C45.4173 13.7946 44.5593 14.7881 42.4952 14.7881C40.539 14.785 39.6002 13.8331 39.4661 12.4529ZM47.0801 13.2701C46.6372 12.587 46.4901 11.6751 46.4901 10.5221C46.4901 7.27894 47.67 5.88493 50.4842 5.5499C51.3961 5.44208 51.8782 5.33502 51.9722 5H53.2322C53.0181 6.27309 52.0769 6.55498 50.6991 6.72903C48.4202 7.02401 47.8302 7.86812 47.7771 9.86594C48.2191 8.82005 49.2512 8.09455 50.5112 8.09455C52.415 8.09455 53.5811 9.59638 53.5811 11.4325C53.5811 13.2955 52.1601 14.7835 50.029 14.7835C48.6612 14.785 47.603 14.1011 47.0801 13.2701ZM52.1732 11.434C52.1732 10.2017 51.289 9.30295 50.029 9.30295C48.7821 9.30295 47.898 10.201 47.898 11.434C47.898 12.694 48.7829 13.5789 50.0298 13.5789C51.2867 13.5789 52.1732 12.6963 52.1732 11.434ZM54.5985 17.332V16.1251C56.0056 16.1251 56.2736 15.871 56.7026 14.678L53.9962 7.94899H55.431L57.4281 12.9489L59.3982 7.94899H60.6982L57.8571 14.9991C57.1331 16.809 56.6102 17.332 54.5985 17.332ZM61.4892 7.94899H62.8301V10.965L65.766 7.94899H67.3748L64.2641 11.139L67.6282 14.651H65.8191L62.8301 11.501V14.651H61.4892V7.94899ZM70.9531 9.02106C70.0142 9.02106 69.4782 9.4901 69.3711 10.1871H68.031C68.2451 8.6329 69.291 7.81498 70.9531 7.81498C72.7622 7.81498 73.7411 8.72609 73.7411 10.5876V14.6495H72.4002V13.0429C72.0652 14.021 71.3551 14.785 69.9742 14.785C68.7142 14.785 67.9232 14.115 67.9232 12.9081C67.9232 11.3801 69.3311 10.5629 72.4002 10.5629V10.4551C72.4002 9.4901 71.8642 9.02106 70.9531 9.02106ZM70.2822 13.6321C71.6632 13.6321 72.4002 12.6809 72.4002 11.528C70.189 11.528 69.3311 12.0371 69.3311 12.8373C69.3311 13.351 69.6938 13.6321 70.2822 13.6321ZM78.9282 7.94899H81.9572C83.4452 7.94899 84.2632 8.57899 84.2632 9.69111C84.2632 10.3843 83.8342 10.9781 82.9762 11.206C83.9551 11.367 84.5581 11.8761 84.5581 12.7733C84.5581 13.6852 83.9682 14.6502 82.1321 14.6502H78.9282V7.94899ZM82.8822 9.91908C82.8822 9.45005 82.5872 9.08807 81.8902 9.08807H80.2452V10.737H81.8933C82.5873 10.737 82.8822 10.375 82.8822 9.91908ZM80.2452 11.8091V13.5119H82.0543C82.8591 13.5119 83.1533 13.1268 83.1533 12.6401C83.1533 12.2111 82.8591 11.8091 81.9873 11.8091H80.2452ZM85.8744 7.94899H87.2152V10.965L90.1503 7.94899H91.7592L88.6493 11.139L92.0142 14.651H90.2043L87.2152 11.501V14.651H85.8744V7.94899ZM92.6033 17.332V16.1251C94.0112 16.1251 94.2792 15.871 94.7082 14.678L92.0003 7.94899H93.4344L95.4322 12.9489L97.4023 7.94899H98.7023L95.8612 14.9991C95.1341 16.809 94.6112 17.332 92.6003 17.332H92.6033ZM104.387 12.1718H105.727C105.405 13.8747 104.239 14.7858 102.537 14.7858C100.458 14.7858 99.052 13.2455 99.052 11.3008C99.052 9.37072 100.459 7.81575 102.51 7.81575C104.281 7.81575 105.419 8.79386 105.673 10.3627H104.333C104.078 9.50473 103.502 9.02183 102.51 9.02183C101.278 9.02183 100.459 9.93372 100.459 11.3008C100.459 12.6817 101.306 13.5797 102.51 13.5797C103.498 13.5789 104.141 13.1099 104.383 12.1711L104.387 12.1718ZM109.708 9.02183C108.77 9.02183 108.234 9.49087 108.126 10.1879H106.786C107 8.63367 108.046 7.81575 109.708 7.81575C111.518 7.81575 112.496 8.72686 112.496 10.5884V14.6502H111.156V13.0429C110.821 14.021 110.11 14.785 108.73 14.785C107.47 14.785 106.679 14.115 106.679 12.9081C106.679 11.3801 108.086 10.5629 111.156 10.5629V10.4551C111.152 9.4901 110.616 9.02106 109.704 9.02106L109.708 9.02183ZM109.038 13.6329C110.419 13.6329 111.156 12.6817 111.156 11.5287C108.944 11.5287 108.086 12.0378 108.086 12.838C108.082 13.351 108.444 13.6321 109.034 13.6321L109.038 13.6329Z" fill="#124F2E"/>
</svg>

