<svg width="24" height="24" viewBox="0 0 24 24" fill="none" xmlns="http://www.w3.org/2000/svg">
    <path d="M6 1V3H5C3.9 3 3 3.9 3 5V19C3 20.1 3.9 21 5 21H19C20.1 21 21 20.1 21 19V5C21 3.9 20.1 3 19 3H18V1H16V3H8V1H6ZM5 5H6H8H16H18H19V7H5V5ZM5 9H19V19H5V9Z" fill="#1DC438"/>
</svg>

