<svg width="42" height="28" viewBox="0 0 42 28" fill="none" xmlns="http://www.w3.org/2000/svg">
    <rect width="42" height="27.5625" fill="white"/>
    <path fill-rule="evenodd" clip-rule="evenodd" d="M18.375 7.875C18.375 10.7745 16.0245 13.125 13.125 13.125C10.2255 13.125 7.875 10.7745 7.875 7.875C7.875 4.9755 10.2255 2.625 13.125 2.625C16.0245 2.625 18.375 4.9755 18.375 7.875ZM13.125 5.48864C12.8615 5.48864 12.6477 5.70232 12.6477 5.96591V7.875C12.6477 8.13859 12.8615 8.35227 13.125 8.35227H15.0341C15.2976 8.35227 15.5114 8.13859 15.5114 7.875C15.5114 7.61141 15.2976 7.39773 15.0341 7.39773H13.6023V5.96591C13.6023 5.70232 13.3885 5.48864 13.125 5.48864ZM20.8581 8.09375C20.8581 8.2655 20.8515 8.43571 20.8387 8.60417H28.0591V11.6667V19.8333H22.1297C21.5646 19.2068 20.7434 18.8125 19.8294 18.8125C18.9154 18.8125 18.0942 19.2068 17.5291 19.8333H14.6858V16.7708V14.7099C14.5161 14.7226 14.3445 14.7292 14.1715 14.7292C13.6403 14.7292 13.1237 14.6677 12.6284 14.5516V15.75H5.42736C4.85923 15.75 4.39865 16.207 4.39865 16.7708C4.39865 17.3346 4.85923 17.7917 5.42736 17.7917H12.6284V20.8542C12.6284 21.418 13.0889 21.875 13.6571 21.875H16.7432C16.7432 23.5664 18.1249 24.9375 19.8294 24.9375C21.5339 24.9375 22.9155 23.5664 22.9155 21.875H29.0878H31.1453C31.1453 23.5664 32.5269 24.9375 34.2314 24.9375C35.9359 24.9375 37.3176 23.5664 37.3176 21.875H38.3463C38.9144 21.875 39.375 21.418 39.375 20.8542V16.3482C39.375 16.0496 39.2432 15.7659 39.0144 15.572L33.4913 10.8905C33.3051 10.7326 33.0681 10.6458 32.8232 10.6458H30.1166V7.58333C30.1166 7.01955 29.656 6.5625 29.0878 6.5625H20.6792C20.7962 7.05405 20.8581 7.56672 20.8581 8.09375ZM36.5317 19.8333C35.9667 19.2068 35.1454 18.8125 34.2314 18.8125C33.3174 18.8125 32.4962 19.2068 31.9311 19.8333H30.1166V12.6875H32.4436L37.3176 16.8188V19.8333H36.5317ZM34.2314 22.8958C34.7996 22.8958 35.2601 22.4388 35.2601 21.875C35.2601 21.3112 34.7996 20.8542 34.2314 20.8542C33.6633 20.8542 33.2027 21.3112 33.2027 21.875C33.2027 22.4388 33.6633 22.8958 34.2314 22.8958ZM20.8581 21.875C20.8581 22.4388 20.3976 22.8958 19.8294 22.8958C19.2612 22.8958 18.8007 22.4388 18.8007 21.875C18.8007 21.3112 19.2612 20.8542 19.8294 20.8542C20.3976 20.8542 20.8581 21.3112 20.8581 21.875ZM2.34122 10.6458C1.77307 10.6458 1.3125 11.1029 1.3125 11.6667C1.3125 12.2305 1.77307 12.6875 2.34122 12.6875H5.42736C5.9955 12.6875 6.45608 12.2305 6.45608 11.6667C6.45608 11.1029 5.9955 10.6458 5.42736 10.6458H2.34122Z" fill="#1DC438"/>
</svg>

