<svg width="8" height="14" viewBox="0 0 8 14" fill="none" xmlns="http://www.w3.org/2000/svg">
    <path d="M1.00079 13L7 7.03415M6.99588 6.96254L1 1" stroke="#121313" stroke-width="2" stroke-linecap="round"/>
</svg>

