<svg width="18" height="18" xmlns="http://www.w3.org/2000/svg">
 <style type="text/css">.st0{fill:#5933AD;}
	.st1{fill:#7D7D7D;}
	.st2{fill:#0F9BDC;}
	.st3{fill:#FFFFFF;}
	.st4{fill:none;stroke:#FFFFFF;stroke-width:1.1705;stroke-miterlimit:10;}
	.st5{fill:#FFFFFF;stroke:#000000;stroke-width:2.027369e-02;stroke-miterlimit:10;}</style>

 <g>
  <title>background</title>
  <rect fill="none" id="canvas_background" height="402" width="582" y="-1" x="-1"/>
 </g>
 <g>
  <title>Layer 1</title>
  <path id="svg_2" d="m9.1,3.1c-3.3,0 -6,2.7 -6,6s2.7,6 6,6s6,-2.7 6,-6s-2.7,-6 -6,-6zm-5,6c0,-1.3 0.5,-2.6 1.4,-3.5c0.9,-0.9 2.2,-1.4 3.5,-1.4c1.1,0 2.2,0.4 3.1,1.1l-7,7c-0.6,-1 -1,-2.1 -1,-3.2zm8.5,3.5c-0.9,0.9 -2.2,1.4 -3.5,1.4c-1.1,0 -2.2,-0.4 -3.1,-1.1l7,-7c0.7,0.9 1.1,2 1.1,3.1c-0.1,1.4 -0.6,2.7 -1.5,3.6z" class="st3"/>
 </g>
</svg>