<?xml version="1.0" encoding="utf-8"?>
<!-- Generator: Adobe Illustrator 22.0.1, SVG Export Plug-In . SVG Version: 6.00 Build 0)  -->
<svg version="1.1" id="Слой_1" xmlns="http://www.w3.org/2000/svg" xmlns:xlink="http://www.w3.org/1999/xlink" x="0px" y="0px"
	 viewBox="0 0 306.2 473.2" style="enable-background:new 0 0 306.2 473.2;" xml:space="preserve">
<style type="text/css">
	.st0{clip-path:url(#SVGID_2_);fill:#FFFFFF;}
</style>
<g>
	<defs>
		<rect id="SVGID_1_" width="306.2" height="473.2"/>
	</defs>
	<clipPath id="SVGID_2_">
		<use xlink:href="#SVGID_1_"  style="overflow:visible;"/>
	</clipPath>
	<path class="st0" d="M169.5,425.8l52.5-22.9l-45.3-103.6c-4.5-10.4,0.2-22.3,10.4-26.8l45.2-19.7L50.6,76.2l6.2,253.2l40.5-17.7
		c10.3-4.5,22.2,0.2,26.8,10.6L169.5,425.8L169.5,425.8z M256.9,432.3l-89.7,39.2c-10.3,4.5-22.2-0.2-26.8-10.6L95.2,357.3
		l-66.8,29.2c-18.2,8-32.7-11.8-27.2-26.2L7.3,12.8C11.2,2.7,23.6-2.7,33.6,1.3l259.1,231.5c16.6,6.6,18.9,29.8,0.8,37.7l-71.5,31.2
		l45.3,103.6C272,415.8,267.3,427.8,256.9,432.3"/>
</g>
</svg>
