<?xml version="1.0" encoding="utf-8"?>
<!-- Generator: Adobe Illustrator 22.0.1, SVG Export Plug-In . SVG Version: 6.00 Build 0)  -->
<svg version="1.1" id="Слой_1" xmlns="http://www.w3.org/2000/svg" xmlns:xlink="http://www.w3.org/1999/xlink" x="0px" y="0px"
	 viewBox="0 0 244.5 437.7" style="enable-background:new 0 0 244.5 437.7;" xml:space="preserve">
<style type="text/css">
	.st0{clip-path:url(#SVGID_2_);fill:#0f9bdc;}
</style>
<g>
	<defs>
		<rect id="SVGID_1_" width="244.5" height="437.7"/>
	</defs>
	<clipPath id="SVGID_2_">
		<use xlink:href="#SVGID_1_"  style="overflow:visible;"/>
	</clipPath>
	<path class="st0" d="M116.8,316.2c-16.7,0-29.8-14.4-28.2-31.1c1.2-12.5,3.2-22,6-28.5c4.7-11,17.1-25.6,37.2-43.7
		c0.1-0.1,0.2-0.2,0.2-0.2c19.5-23.1,33.4-40.8,41.7-53.2c8.3-12.4,12.4-27.5,12.4-45c0-20.9-5.6-37-16.7-48.3
		c-11.2-11.3-27.1-16.9-47.9-16.9c-18,0-33.3,4.9-45.9,14.7C66.3,71,60.5,80.6,58,92.7C56.3,101,49,107,40.4,107H8.7
		c-4.4,0-8.2-3.3-8.7-7.7c0,0,0,0.4,0,0c-0.5-31.6,10.8-51.4,33.6-70.5C56.7,9.6,86,0,121.5,0c38.9,0,69.1,9.9,90.7,29.8
		c21.5,19.9,32.3,47.6,32.3,83.1c0,25.5-7,48.8-20.9,69.9c-13.9,21.1-32.4,42.8-55.3,64.9c-10.7,10.7-17.1,20.3-19.4,28.7
		c-1,3.7-1.7,8.2-2.3,13.6c-1.5,14.8-14.1,26.1-29,26.1H116.8z M117.1,437.7L117.1,437.7c-16.9,0-30.5-13.7-30.5-30.5v-0.6
		c0-16.9,13.7-30.5,30.5-30.5c16.9,0,30.5,13.7,30.5,30.5v0.6C147.6,424,133.9,437.7,117.1,437.7"/>
</g>
</svg>
