<?xml version="1.0" encoding="utf-8"?>
<!-- Generator: Adobe Illustrator 22.0.1, SVG Export Plug-In . SVG Version: 6.00 Build 0)  -->
<svg version="1.1" id="Слой_1" xmlns="http://www.w3.org/2000/svg" xmlns:xlink="http://www.w3.org/1999/xlink" x="0px" y="0px"
	 viewBox="0 0 522.1 522.1" style="enable-background:new 0 0 522.1 522.1;" xml:space="preserve">
<style type="text/css">
	.st0{clip-path:url(#SVGID_2_);}
	.st1{clip-path:url(#SVGID_2_);fill:#FFFFFF;}
</style>
<g>
	<defs>
		<rect id="SVGID_1_" width="522.1" height="522.1"/>
	</defs>
	<clipPath id="SVGID_2_">
		<use xlink:href="#SVGID_1_"  style="overflow:visible;"/>
	</clipPath>
	<path class="st0" d="M522.1,261.1c0,144.2-116.9,261.1-261.1,261.1C116.9,522.1,0,405.2,0,261.1C0,116.9,116.9,0,261.1,0
		C405.2,0,522.1,116.9,522.1,261.1"/>
	<path class="st1" d="M454.3,343.6c0,80.4-86.5,145.5-193.3,145.5S67.8,424,67.8,343.6c0-80.4,86.5-74.8,193.3-74.8
		S454.3,263.3,454.3,343.6"/>
	<path class="st1" d="M261.1,307.9c-75.5,0-136.9-61.4-136.9-136.9c0-75.5,61.4-136.9,136.9-136.9c75.5,0,136.9,61.4,136.9,136.9
		C397.9,246.5,336.5,307.9,261.1,307.9"/>
	<path class="st0" d="M261.1,48.1c67.9,0,122.9,55,122.9,122.9c0,67.9-55,122.9-122.9,122.9c-67.9,0-122.9-55-122.9-122.9
		C138.2,103.1,193.2,48.1,261.1,48.1 M261.1,20.1c-20.4,0-40.1,4-58.7,11.9c-18,7.6-34.1,18.5-48,32.3c-13.8,13.8-24.7,30-32.3,48
		c-7.9,18.6-11.9,38.4-11.9,58.7c0,20.4,4,40.1,11.9,58.7c7.6,18,18.5,34.1,32.3,48c13.8,13.8,30,24.7,48,32.3
		c18.6,7.9,38.4,11.9,58.7,11.9c20.4,0,40.1-4,58.7-11.9c18-7.6,34.1-18.5,48-32.3c13.8-13.8,24.7-30,32.3-48
		c7.9-18.6,11.9-38.4,11.9-58.7c0-20.4-4-40.1-11.9-58.7c-7.6-18-18.5-34.1-32.3-48c-13.8-13.8-30-24.7-48-32.3
		C301.2,24.1,281.4,20.1,261.1,20.1"/>
</g>
</svg>
