<?xml version="1.0" encoding="utf-8"?>
<!-- Generator: Adobe Illustrator 22.0.1, SVG Export Plug-In . SVG Version: 6.00 Build 0)  -->
<svg fill="#f40000" version="1.1" id="Слой_1" xmlns="http://www.w3.org/2000/svg" xmlns:xlink="http://www.w3.org/1999/xlink" x="0px" y="0px"
	 viewBox="0 0 419.5 280.1" style="enable-background:new 0 0 419.5 280.1;" xml:space="preserve">
<style type="text/css">
	.st0{clip-path:url(#SVGID_2_);}
</style>
<g>
	<defs>
		<rect id="SVGID_1_" width="419.5" height="280.1"/>
	</defs>
	<clipPath id="SVGID_2_">
		<use xlink:href="#SVGID_1_"  style="overflow:visible;"/>
	</clipPath>
	<path class="st0" d="M414.9,25c-2.9-1.7-6.4-1.8-9.3-0.2l-102,55.7V47.1c0-26-21.1-47.1-47.1-47.1H47.1C21.1,0,0,21.1,0,47.1V233
		c0,26,21.1,47.1,47.1,47.1h209.4c26,0,47.1-21.1,47.1-47.1v-32.8l102,55.7c2.9,1.6,6.5,1.5,9.3-0.2c2.9-1.7,4.6-4.8,4.6-8.1V33.1
		C419.5,29.8,417.8,26.7,414.9,25 M284.8,233c0,15.6-12.7,28.2-28.3,28.3H47.1c-15.6,0-28.2-12.7-28.3-28.3V47.1
		c0-15.6,12.7-28.2,28.3-28.3h209.4c15.6,0,28.2,12.7,28.3,28.3L284.8,233z M400.7,231.8l-97.1-53V102l97.1-53V231.8z"/>
	<path class="st0" d="M262.6,264.5H41c-14.4,0-26-11.6-26-26V41.6c0-14.4,11.6-26,26-26h221.7c14.4,0,26,11.6,26,26v196.9
		C288.6,252.9,277,264.5,262.6,264.5"/>
	<polygon class="st0" points="410.2,245.3 295.5,182.6 300.6,96.7 407.3,36.9 	"/>
</g>
</svg>
