<?xml version="1.0" encoding="utf-8"?>
<!-- Generator: Adobe Illustrator 22.0.1, SVG Export Plug-In . SVG Version: 6.00 Build 0)  -->
<svg fill="#f40000" version="1.1" id="Слой_1" xmlns="http://www.w3.org/2000/svg" xmlns:xlink="http://www.w3.org/1999/xlink" x="0px" y="0px"
	 viewBox="0 0 592.5 359.1" style="enable-background:new 0 0 592.5 359.1;" xml:space="preserve">
<style type="text/css">
	.st0{clip-path:url(#SVGID_2_);}
</style>
<g>
	<defs>
		<rect id="SVGID_1_" width="592.5" height="359.1"/>
	</defs>
	<clipPath id="SVGID_2_">
		<use xlink:href="#SVGID_1_"  style="overflow:visible;"/>
	</clipPath>
	<path class="st0" d="M296.2,35.9c75.7,0,139.8,34.5,180.2,63.5c47.9,34.3,72.6,67.5,78.9,80.2c-6.4,12.7-31,45.8-78.9,80.2
		c-40.4,29-104.5,63.5-180.2,63.5S156.4,288.7,116,259.7c-47.9-34.3-72.6-67.5-79-80.2c6.4-12.7,31-45.8,78.9-80.2
		C156.4,70.4,220.5,35.9,296.2,35.9 M296.2,0C132.6,0,0,143.6,0,179.5c0,35.9,132.6,179.5,296.2,179.5
		c163.6,0,296.2-143.6,296.2-179.5C592.5,143.6,459.8,0,296.2,0"/>
	<path class="st0" d="M296.2,8.3c-77.2,0-139.8,62.6-139.8,139.8S219,287.9,296.2,287.9c77.2,0,139.8-62.6,139.8-139.8
		S373.4,8.3,296.2,8.3 M296.1,60.2L296.1,60.2c-1,7.2-6.8,12.8-13.9,13.6c-4.5,0.5-9.8,1.6-15.2,3.7c-17.9,7.1-29.7,22.8-35.1,46.8
		c-1.7,7.4-8.3,12.5-15.6,12.5c-1.2,0-2.3-0.1-3.5-0.4c-8.6-1.9-14-10.5-12.1-19.1c10-44.5,36.1-62.7,56.3-70.2
		c7.8-2.9,15.2-4.4,21.5-5.1C288.8,40.8,297.6,49.8,296.1,60.2"/>
</g>
</svg>
