<svg id="Слой_1" data-name="Слой 1" xmlns="http://www.w3.org/2000/svg" viewBox="0 0 100 100">
    <defs>
        <style>.cls-1{fill:#1d1d1b;}</style>
    </defs>
    <path class="cls-1"
          d="M50,91.38A40.28,40.28,0,0,1,32,15.07a4.3,4.3,0,0,1,3.85,7.7,31.67,31.67,0,1,0,29.34.53,4.3,4.3,0,1,1,4.13-7.55A40.28,40.28,0,0,1,50,91.38Z"/>
    <path class="cls-1" d="M50,57.93a6.5,6.5,0,0,1-6.51-6.51V15.13a6.51,6.51,0,1,1,13,0V51.42A6.5,6.5,0,0,1,50,57.93Z"/>
</svg>
