<?xml version="1.0" encoding="utf-8"?>
<!-- Generator: Adobe Illustrator 22.0.1, SVG Export Plug-In . SVG Version: 6.00 Build 0)  -->
<svg version="1.1" id="Слой_1" xmlns="http://www.w3.org/2000/svg" xmlns:xlink="http://www.w3.org/1999/xlink" x="0px" y="0px"
	 viewBox="0 0 644 643.4" style="enable-background:new 0 0 644 643.4;" xml:space="preserve">
<style type="text/css">
	.st0{clip-path:url(#SVGID_2_);fill:#0B9FDF;}
</style>
<g>
	<defs>
		<rect id="SVGID_1_" width="644" height="643.4"/>
	</defs>
	<clipPath id="SVGID_2_">
		<use xlink:href="#SVGID_1_"  style="overflow:visible;"/>
	</clipPath>
	<path class="st0" d="M117.1,288.9c-8.5-2.4-16.1-6.1-21.5-13.5c-14.9-20.6-3-49.7,22.2-52.5c13.2-1.5,26.6-0.6,39.9-0.7
		c5.2,0,10.5,0,17.2,0c-2.5-2.6-3.9-4.2-5.4-5.6C117,164.1,64.4,111.5,11.8,59C-1.7,45.5-3.8,27.5,6.5,13.8C19-3,41.9-4.8,57.3,10.2
		c18.5,18,36.6,36.4,54.9,54.7c35.2,35.2,70.5,70.4,105.7,105.6c1.1,1.1,2.4,2.1,4.6,4.1v-6.9c0-15-0.2-30,0-45
		c0.2-13.9,6.5-24.4,19.1-30.4c12.2-5.8,24-4.2,34.8,3.9c6.7,5,10.2,12.1,12.6,19.9v146c-1.2,3-2.2,6.2-3.7,9.1
		c-5.1,10-13.9,15.1-24.3,17.9H117.1z"/>
	<path class="st0" d="M355.6,112.7c3-7.1,6.8-13.7,13.6-18.1c11-7.1,22.5-8.1,34.1-2.1c11.6,6,17.8,16,18.1,29
		c0.4,14.5,0.1,29,0.1,43.5v9.5c2.4-2.3,3.9-3.6,5.4-5C479.7,116.8,532.4,64,585.2,11.3c19.1-19.1,48.9-13.1,57,11.7
		c4.5,13.9,0.2,25.8-10,35.9c-27.5,27.4-54.9,54.9-82.4,82.3c-25.6,25.5-51.2,51.1-76.7,76.6c-1,1-1.9,2.2-3.6,4
		c2.6,0.1,4.3,0.3,6,0.3c15.8,0,31.7-0.3,47.5,0.2c13.3,0.4,23.2,7.1,28.8,19.1c5.6,12.1,4,23.7-3.9,34.4
		c-5.1,6.9-12.6,10-20.3,12.8h-145c-13.2-3.3-22.3-11.2-27-24V112.7z"/>
	<path class="st0" d="M281.6,367.3c-0.3-0.4-0.7-0.7-1.1-1.1c-7.1-6.9-16.7-10.6-26.6-10.6H112.1c-6.6,2.8-12.2,6.6-16.4,12.4
		c-7.8,10.8-9.1,22.5-3.3,34.5c5.7,11.7,15.5,18.3,28.6,18.7c15.8,0.4,31.7,0.1,47.5,0.1c1.7,0,3.4,0,6.6,0c-2.5,2.6-3.8,4-5.2,5.4
		C130.6,465.8,91.4,505,52.1,544.2c-13.8,13.8-27.7,27.5-41.4,41.3C-7.5,604-1.7,633,22.2,641.4c14.9,5.3,27.2,0,38-10.8
		c52.5-52.6,105.1-105.1,157.7-157.6c1.1-1.1,2.4-2.1,4.5-4v7c0,15-0.2,30,0.1,45c0.2,13.7,6.4,24.1,18.8,30.2
		c12.1,5.9,23.9,4.5,34.9-3.5c6.8-4.9,10.2-12.1,13-19.6V389.7c0-6.2-1.4-12.4-4.3-17.9C283.8,370.1,282.8,368.6,281.6,367.3"/>
	<path class="st0" d="M362.9,543c9.1,10.9,23.7,14.4,37.2,9.5c12.6-4.6,21.3-16.9,21.4-30.9c0.2-15.5,0-31,0.1-46.5
		c0-1.7,0.2-3.3,0.3-5c0.8-0.3,0.8-0.3,1.7-0.5c1.2,1.5,2.2,3.2,3.6,4.6c52.7,52.7,105.4,105.3,158,158c5.4,5.4,11.6,9.5,19.3,10.8
		c14.5,2.6,28.8-4.3,35.4-16.9c7.3-13.9,4.8-29-6.9-40.7c-51.4-51.3-102.8-102.7-154.2-154c-3-3-5.9-6-9.8-10.1c3.3,0,5,0,6.8,0
		c15.5,0,31,0.1,46.5-0.1c14.1-0.2,26.2-9,30.6-21.7c4.7-13.5,1.2-27.7-9.6-36.7c-3.4-2.8-7.5-4.8-11.6-7.1H386
		c-7.3,0-14.5,2.6-19.9,7.5c-0.3,0.3-0.7,0.6-1,0.9c-6.1,6-9.3,14.4-9.3,23v144C358.1,535,360,539.4,362.9,543"/>
</g>
</svg>
