<?xml version="1.0" encoding="utf-8"?>
<svg version="1.1" id="Слой_1" xmlns="http://www.w3.org/2000/svg" xmlns:xlink="http://www.w3.org/1999/xlink" x="23px" y="23px"
     width="400px" height="400px" style="enable-background:new 0 0 400 400;" xml:space="preserve">
<style type="text/css">
	.st0{clip-path:url(#SVGID_2_);fill:#f40000;}
	.st1{clip-path:url(#SVGID_2_);fill:none;stroke:#f40000;stroke-width:45;stroke-miterlimit:10;}
</style>
    <g>
	<defs>
		<rect id="SVGID_1_" width="400" height="400"/>
	</defs>
        <clipPath id="SVGID_2_">
		<use xlink:href="#SVGID_1_"  style="overflow:visible;"/>
	</clipPath>
        <path class="st0" d="M209,177L324.8,61.1c8.8-8.8,8.8-23.2,0-32c-8.8-8.8-23.1-8.8-32,0L177,145L61.1,29.1c-8.8-8.8-23.2-8.8-32,0
		c-8.8,8.8-8.8,23.2,0,32L145,177L29.1,292.9c-8.8,8.8-8.8,23.2,0,32c8.8,8.8,23.2,8.8,32,0L177,209l115.9,115.9
		c8.8,8.8,23.2,8.8,32,0c8.8-8.8,8.8-23.2,0-32L209,177z"/>
        <path class="st1" d="M209,177L324.8,61.1c8.8-8.8,8.8-23.2,0-32c-8.8-8.8-23.1-8.8-32,0L177,145L61.1,29.1c-8.8-8.8-23.2-8.8-32,0
		c-8.8,8.8-8.8,23.2,0,32L145,177L29.1,292.9c-8.8,8.8-8.8,23.2,0,32c8.8,8.8,23.2,8.8,32,0L177,209l115.9,115.9
		c8.8,8.8,23.2,8.8,32,0c8.8-8.8,8.8-23.2,0-32L209,177z"/>
</g>
</svg>
