<svg width="14" height="8" viewBox="0 0 14 8" fill="none" xmlns="http://www.w3.org/2000/svg">
<path d="M1 1.00079L6.96585 7M7.03746 6.99588L13 0.999999" stroke="#1DC438" stroke-width="2" stroke-linecap="round"/>
</svg>
