<svg width="20" height="17" viewBox="0 0 20 17" fill="none" xmlns="http://www.w3.org/2000/svg">
    <path fill-rule="evenodd" clip-rule="evenodd" d="M1.49922 0.699951C1.05739 0.699951 0.699219 1.05812 0.699219 1.49995C0.699219 1.94178 1.05739 2.29995 1.49922 2.29995H5.13286L5.85822 5.20139L7.08189 10.7079C7.30159 11.6965 8.22557 12.3649 9.23327 12.2641L15.5575 11.6317C16.6938 11.5181 17.667 10.7692 18.068 9.69998L19.8904 4.84032C20.1355 4.18657 19.6522 3.4892 18.954 3.4892H7.11676H7.07941L6.53359 1.30592C6.44456 0.949789 6.12457 0.699951 5.75748 0.699951H1.49922ZM8.50175 9.72163C8.55191 9.57899 8.56225 9.42055 8.52283 9.26288L7.47941 5.0892H18.0882L16.5699 9.13819C16.3827 9.63717 15.9286 9.98664 15.3983 10.0397L9.07407 10.6721C8.87253 10.6922 8.68773 10.5586 8.64379 10.3608L8.50175 9.72163ZM8.46158 14.9273C8.46158 15.7513 7.79362 16.4192 6.96965 16.4192C6.14568 16.4192 5.47772 15.7513 5.47772 14.9273C5.47772 14.1033 6.14568 13.4354 6.96965 13.4354C7.79362 13.4354 8.46158 14.1033 8.46158 14.9273ZM16.9158 16.4192C17.7397 16.4192 18.4077 15.7513 18.4077 14.9273C18.4077 14.1033 17.7397 13.4354 16.9158 13.4354C16.0918 13.4354 15.4238 14.1033 15.4238 14.9273C15.4238 15.7513 16.0918 16.4192 16.9158 16.4192Z" fill="#4B5258"/>
    <path fill-rule="evenodd" clip-rule="evenodd" d="M1.49922 0.699951C1.05739 0.699951 0.699219 1.05812 0.699219 1.49995C0.699219 1.94178 1.05739 2.29995 1.49922 2.29995H5.13286L5.85822 5.20139L7.08189 10.7079C7.30159 11.6965 8.22557 12.3649 9.23327 12.2641L15.5575 11.6317C16.6938 11.5181 17.667 10.7692 18.068 9.69998L19.8904 4.84032C20.1355 4.18657 19.6522 3.4892 18.954 3.4892H7.11676H7.07941L6.53359 1.30592C6.44456 0.949789 6.12457 0.699951 5.75748 0.699951H1.49922ZM8.50175 9.72163C8.55191 9.57899 8.56225 9.42055 8.52283 9.26288L7.47941 5.0892H18.0882L16.5699 9.13819C16.3827 9.63717 15.9286 9.98664 15.3983 10.0397L9.07407 10.6721C8.87253 10.6922 8.68773 10.5586 8.64379 10.3608L8.50175 9.72163ZM8.46158 14.9273C8.46158 15.7513 7.79362 16.4192 6.96965 16.4192C6.14568 16.4192 5.47772 15.7513 5.47772 14.9273C5.47772 14.1033 6.14568 13.4354 6.96965 13.4354C7.79362 13.4354 8.46158 14.1033 8.46158 14.9273ZM16.9158 16.4192C17.7397 16.4192 18.4077 15.7513 18.4077 14.9273C18.4077 14.1033 17.7397 13.4354 16.9158 13.4354C16.0918 13.4354 15.4238 14.1033 15.4238 14.9273C15.4238 15.7513 16.0918 16.4192 16.9158 16.4192Z" fill="#1DC438"/>
</svg>
