<svg width="20" height="20" viewBox="0 0 20 20" fill="none" xmlns="http://www.w3.org/2000/svg">
<path d="M1 1L18.6 18.6" stroke="#C4451D" stroke-width="2" stroke-linecap="round"/>
<path d="M18.6016 1L1.00156 18.6" stroke="#C4451D" stroke-width="2" stroke-linecap="round"/>
</svg>
