<svg width="30" height="18" viewBox="0 0 30 18" fill="none" xmlns="http://www.w3.org/2000/svg">
    <path fill-rule="evenodd" clip-rule="evenodd" d="M13.5 4.5C13.5 6.70914 11.7092 8.5 9.5 8.5C7.29086 8.5 5.5 6.70914 5.5 4.5C5.5 2.29086 7.29086 0.5 9.5 0.5C11.7092 0.5 13.5 2.29086 13.5 4.5ZM9.5 2.68182C9.2992 2.68182 9.13636 2.84463 9.13636 3.04545V4.5C9.13636 4.70083 9.2992 4.86364 9.5 4.86364H10.9545C11.1553 4.86364 11.3182 4.70083 11.3182 4.5C11.3182 4.29917 11.1553 4.13636 10.9545 4.13636H9.86364V3.04545C9.86364 2.84463 9.7008 2.68182 9.5 2.68182ZM15.3919 4.66667C15.3919 4.79752 15.3869 4.92721 15.3771 5.05556H20.8784V7.38889V13.6111H16.3607C15.9302 13.1338 15.3045 12.8333 14.6081 12.8333C13.9117 12.8333 13.286 13.1338 12.8555 13.6111H10.6892V11.2778V9.70752C10.5599 9.71724 10.4291 9.72222 10.2973 9.72222C9.89263 9.72222 9.49901 9.6754 9.12162 9.58697V10.5H3.63514C3.20227 10.5 2.85135 10.8482 2.85135 11.2778C2.85135 11.7073 3.20227 12.0556 3.63514 12.0556H9.12162V14.3889C9.12162 14.8185 9.47252 15.1667 9.90541 15.1667H12.2568C12.2568 16.4554 13.3095 17.5 14.6081 17.5C15.9068 17.5 16.9595 16.4554 16.9595 15.1667H21.6622H23.2297C23.2297 16.4554 24.2824 17.5 25.5811 17.5C26.8797 17.5 27.9324 16.4554 27.9324 15.1667H28.7162C29.1491 15.1667 29.5 14.8185 29.5 14.3889V10.9558C29.5 10.7283 29.3996 10.5121 29.2253 10.3644L25.0171 6.79749C24.8753 6.6772 24.6948 6.61111 24.5082 6.61111H22.4459V4.27778C22.4459 3.84823 22.095 3.5 21.6622 3.5H15.2556C15.3447 3.87452 15.3919 4.26512 15.3919 4.66667ZM27.3337 13.6111C26.9032 13.1338 26.2775 12.8333 25.5811 12.8333C24.8847 12.8333 24.259 13.1338 23.8285 13.6111H22.4459V8.16667H24.2189L27.9324 11.3143V13.6111H27.3337ZM25.5811 15.9444C26.014 15.9444 26.3649 15.5962 26.3649 15.1667C26.3649 14.7371 26.014 14.3889 25.5811 14.3889C25.1482 14.3889 24.7973 14.7371 24.7973 15.1667C24.7973 15.5962 25.1482 15.9444 25.5811 15.9444ZM15.3919 15.1667C15.3919 15.5962 15.041 15.9444 14.6081 15.9444C14.1752 15.9444 13.8243 15.5962 13.8243 15.1667C13.8243 14.7371 14.1752 14.3889 14.6081 14.3889C15.041 14.3889 15.3919 14.7371 15.3919 15.1667ZM1.28378 6.61111C0.850912 6.61111 0.5 6.95934 0.5 7.38889C0.5 7.81844 0.850912 8.16667 1.28378 8.16667H3.63514C4.068 8.16667 4.41892 7.81844 4.41892 7.38889C4.41892 6.95934 4.068 6.61111 3.63514 6.61111H1.28378Z" fill="#1DC438"/>
</svg>
