<svg width="100" height="100" viewBox="0 0 100 100" fill="none" xmlns="http://www.w3.org/2000/svg">
    <path d="M99.5 50C99.5 77.3364 77.3364 99.5 50 99.5C22.6636 99.5 0.5 77.3364 0.5 50C0.5 22.6636 22.6636 0.5 50 0.5C77.3364 0.5 99.5 22.6636 99.5 50Z" fill="url(#paint0_linear)" stroke="url(#paint1_linear)"/>
    <path d="M44.219 64.4869L44.2186 64.4864L28.9145 49.1824C28.3616 48.6294 28.3622 47.7354 28.9141 47.185L28.9145 47.1845L31.6195 44.4796C32.1725 43.9266 33.0665 43.9272 33.617 44.4791L33.6174 44.4796L44.8639 55.7261L45.2175 56.0796L45.571 55.7261L66.3826 34.9145C66.9356 34.3616 67.8296 34.3622 68.38 34.9141L68.3805 34.9145L71.0855 37.6195C71.6384 38.1725 71.6378 39.0665 71.0859 39.617L71.0855 39.6174L46.2164 64.4864L46.216 64.4869C45.6653 65.039 44.7697 65.039 44.219 64.4869Z" fill="white" stroke="url(#paint2_linear)"/>
    <defs>
        <linearGradient id="paint0_linear" x1="50" y1="0" x2="50" y2="100" gradientUnits="userSpaceOnUse">
            <stop stop-color="#94DFA1"/>
            <stop offset="1" stop-color="#2CC745"/>
        </linearGradient>
        <linearGradient id="paint1_linear" x1="20.5" y1="6" x2="50" y2="100" gradientUnits="userSpaceOnUse">
            <stop stop-color="#8EDE9B"/>
            <stop offset="1" stop-color="#24A43A"/>
        </linearGradient>
        <linearGradient id="paint2_linear" x1="50" y1="34" x2="72" y2="72.5" gradientUnits="userSpaceOnUse">
            <stop stop-color="#86DC94"/>
            <stop offset="1" stop-color="#269E3A"/>
        </linearGradient>
    </defs>
</svg>
