<svg width="20" height="20" viewBox="0 0 20 20" fill="none" xmlns="http://www.w3.org/2000/svg">
    <path d="M6.79938 9.665L9.375 12.2412V5.625C9.375 5.28 9.655 5 10 5C10.345 5 10.625 5.28 10.625 5.625V12.2412L13.2006 9.66562C13.445 9.42124 13.8406 9.42124 14.0844 9.66562C14.3288 9.91 14.3288 10.3056 14.0844 10.5493L10.5488 14.085C10.3988 14.235 10.1938 14.2812 9.99935 14.2468C9.80559 14.2812 9.59997 14.2343 9.44997 14.085L5.91435 10.5493C5.66997 10.305 5.66997 9.90938 5.91435 9.66562C6.15938 9.42124 6.555 9.42124 6.79938 9.665ZM10 0C15.5225 0 20 4.47686 20 10C20 15.5231 15.5225 20 10 20C4.47752 20 -1.90735e-06 15.5225 -1.90735e-06 10C-1.90735e-06 4.47752 4.47686 0 10 0ZM10 18.75C14.8325 18.75 18.75 14.8325 18.75 10C18.75 5.16748 14.8325 1.25 10 1.25C5.16748 1.25 1.25 5.16748 1.25 10C1.25 14.8325 5.16748 18.75 10 18.75Z"
          fill="#1DC438"/>
</svg>
