<svg width="18" height="18" viewBox="0 0 18 18" fill="none" xmlns="http://www.w3.org/2000/svg">
    <rect y="3.05078" width="18" height="1.86667" rx="0.933333" fill="#1DC438"/>
    <rect x="2.68359" y="1" width="5.68182" height="6.2" rx="2" fill="white" stroke="#1DC438" stroke-width="2"/>
    <rect y="12.8516" width="18" height="1.86667" rx="0.933333" fill="#1DC438"/>
    <rect x="6.36328" y="10.8008" width="5.68182" height="6.2" rx="2" fill="white" stroke="#1DC438" stroke-width="2"/>
</svg>
