<svg width="22" height="22" viewBox="0 0 22 22" fill="none" xmlns="http://www.w3.org/2000/svg">
    <rect y="3.2832" width="22" height="2.28148" rx="1.14074" fill="#9BA2A8"/>
    <rect x="3.5" y="1" width="6.5" height="7.13333" rx="2" fill="white" stroke="#9BA2A8" stroke-width="2"/>
    <rect y="15.2617" width="22" height="2.28148" rx="1.14074" fill="#9BA2A8"/>
    <rect x="8" y="12.9785" width="6.5" height="7.13333" rx="2" fill="white" stroke="#9BA2A8" stroke-width="2"/>
</svg>

