<svg viewBox="0 0 12 12" fill="none" xmlns="http://www.w3.org/2000/svg">
    <path d="M7 1C7 0.447715 6.55228 2.41411e-08 6 0C5.44772 -2.41411e-08 5 0.447715 5 1L7 1ZM5 11C5 11.5523 5.44771 12 6 12C6.55228 12 7 11.5523 7 11L5 11ZM5 1L5 11L7 11L7 1L5 1Z" fill="#1DC438"/>
    <path d="M1 5C0.447715 5 0 5.44772 0 6C0 6.55228 0.447715 7 1 7V5ZM11 7C11.5523 7 12 6.55228 12 6C12 5.44772 11.5523 5 11 5V7ZM1 7H11V5H1V7Z" fill="#1DC438"/>
</svg>
