<svg width="44" height="60" viewBox="0 0 44 60" fill="none" xmlns="http://www.w3.org/2000/svg">
    <path d="M8.04816 0C3.61112 0 0.0216717 3.61105 0.0483001 8.04801L0.307115 51.173C0.333518 55.5725 3.90743 59.125 8.30697 59.125H36C40.4183 59.125 44 55.5433 44 51.125V17.9249C44 15.8509 43.1946 13.858 41.7536 12.3664L32.1652 2.44152C30.6578 0.881179 28.5812 0 26.4116 0H8.04816Z"
          fill="#BA82F7"/>
    <path d="M30.2267 3.41421C28.9668 2.15428 26.8125 3.04662 26.8125 4.82843V15.1875C26.8125 16.2921 27.7079 17.1875 28.8125 17.1875H39.1716C40.9534 17.1875 41.8457 15.0332 40.5858 13.7733L30.2267 3.41421Z"
          fill="#925ACF"/>
</svg>
