<svg width="16" height="14" viewBox="0 0 16 14" fill="none" xmlns="http://www.w3.org/2000/svg">
    <path d="M3.94485 6.2C4.43742 3.85601 6.46191 2.10001 8.87501 2.10001C11.6543 2.10001 13.925 4.42738 13.925 7.30001C13.925 10.1726 11.6543 12.5 8.87501 12.5C7.45499 12.5 6.12851 11.9002 5.17297 10.8375C4.94281 10.5816 4.54052 10.521 4.25573 10.7497C3.9874 10.9652 3.92853 11.3674 4.16629 11.6403C5.36592 13.017 7.05902 13.8 8.87501 13.8C12.3681 13.8 15.2 10.8785 15.2 7.30001C15.2 3.72149 12.3681 0.800027 8.87501 0.8C5.74809 0.8 3.15838 3.14359 2.64829 6.2H1H0.526613L0.856601 6.53942L3.0441 8.78942L3.1875 8.93691L3.3309 8.78942L5.5184 6.53942L5.84838 6.2H5.375H3.94485Z"
          fill="#959CA3" stroke="#959CA3" stroke-width="0.4"/>
</svg>
