<svg viewBox="0 0 24 20" fill="none" xmlns="http://www.w3.org/2000/svg">
    <path d="M15.6 1.875L19.2 6.875M8.99995 1.875L6.89995 4.375L4.79995 6.875M1.19995 7.5H2.39995M22.7999 7.5H21.5999M21.5999 7.5L18.8137 16.7873C18.6869 17.2103 18.2975 17.5 17.8559 17.5H6.70278C6.28109 17.5 5.90472 17.2355 5.76189 16.8387L2.39995 7.5M21.5999 7.5H2.39995"
          stroke="#959CA3" stroke-width="2" stroke-linecap="round"/>
</svg>
