<svg width="24" height="30" viewBox="0 0 24 30" fill="none" xmlns="http://www.w3.org/2000/svg">
<path opacity="0.44" fill-rule="evenodd" clip-rule="evenodd" d="M1 0C0.447715 0 0 0.447715 0 1V3C0 3.55228 0.447715 4 1 4H10C10.5523 4 11 4.44772 11 5V10C11 10.5523 11.4477 11 12 11C12.5523 11 13 10.5523 13 10V5C13 4.44772 13.4477 4 14 4H23C23.5523 4 24 3.55228 24 3V1C24 0.447715 23.5523 0 23 0H22.6C22.0477 0 21.6 0.447715 21.6 1C21.6 1.55228 21.1523 2 20.6 2H3.4C2.84772 2 2.4 1.55228 2.4 1C2.4 0.447715 1.95229 0 1.4 0H1Z" fill="#989DA3"/>
<path fill-rule="evenodd" clip-rule="evenodd" d="M12 8C5.37258 8 0 13.3726 0 20V28C0 29.1046 0.89543 30 2 30H22C23.1046 30 24 29.1046 24 28V20C24 13.3726 18.6274 8 12 8ZM11.3827 19.2727L14.7994 15.856C12.8543 14.5389 10.1872 14.7417 8.46447 16.4645C6.51184 18.4171 6.51184 21.5829 8.46447 23.5355C10.4171 25.4882 13.5829 25.4882 15.5355 23.5355C17.2337 21.8374 17.455 19.2216 16.1994 17.2843L12.7969 20.6869C12.4063 21.0774 11.7732 21.0774 11.3827 20.6869C10.9921 20.2964 10.9921 19.6632 11.3827 19.2727Z" fill="#989DA3"/>
</svg>
